{
  "id": "59518de7-76f1-45dd-8a6d-3d4266d75993",
  "name": "Default Fallback Intent",
  "auto": true,
  "contexts": [],
  "responses": [
    {
      "resetContexts": false,
      "action": "input.unknown",
      "affectedContexts": [],
      "parameters": [],
      "messages": [
        {
          "type": "0",
          "title": "",
          "textToSpeech": "",
          "lang": "en",
          "speech": [
            "I didn\u0027t get that. Can you say it again?",
            "I missed what you said. What was that?",
            "Sorry, could you say that again?",
            "Sorry, can you say that again?",
            "Can you say that again?",
            "Sorry, I didn\u0027t get that. Can you rephrase?",
            "Sorry, what was that?",
            "One more time?",
            "What was that?",
            "Say that one more time?",
            "I didn\u0027t get that. Can you repeat?",
            "I missed that, say that again?"
          ],
          "condition": ""
        }
      ],
      "speech": []
    }
  ],
  "priority": 500000,
  "webhookUsed": false,
  "webhookForSlotFilling": false,
  "fallbackIntent": true,
  "events": [],
  "conditionalResponses": [],
  "condition": "",
  "conditionalFollowupEvents": []
}