{
  "id": "978bbd4f-5176-41cb-9028-a5890e846ac2",
  "name": "NameIntent",
  "auto": true,
  "contexts": [
    "welcome"
  ],
  "responses": [
    {
      "resetContexts": false,
      "action": "",
      "affectedContexts": [
        {
          "name": "NameIntent",
          "lifespan": 5
        }
      ],
      "parameters": [
        {
          "id": "2d2bf5a0-f8ce-4f9e-ac78-70353cd845d3",
          "name": "given-name",
          "required": false,
          "dataType": "@sys.given-name",
          "value": "$given-name",
          "defaultValue": "",
          "isList": false,
          "prompts": [],
          "promptMessages": [],
          "noMatchPromptMessages": [],
          "noInputPromptMessages": [],
          "outputDialogContexts": []
        },
        {
          "id": "8b0eda31-9ba7-4fd3-beb0-9ca99cb55870",
          "name": "last-name",
          "required": false,
          "dataType": "@sys.last-name",
          "value": "$last-name",
          "defaultValue": "",
          "isList": false,
          "prompts": [],
          "promptMessages": [],
          "noMatchPromptMessages": [],
          "noInputPromptMessages": [],
          "outputDialogContexts": []
        }
      ],
      "messages": [
        {
          "type": "0",
          "title": "",
          "textToSpeech": "",
          "lang": "en",
          "condition": ""
        }
      ],
      "speech": []
    }
  ],
  "priority": 500000,
  "webhookUsed": true,
  "webhookForSlotFilling": false,
  "fallbackIntent": false,
  "events": [],
  "conditionalResponses": [],
  "condition": "",
  "conditionalFollowupEvents": []
}