[
  {
    "id": "473d8276-e67e-410b-9f0c-d508f490383d",
    "data": [
      {
        "text": "givenname",
        "meta": "@sys.given-name",
        "alias": "given-name",
        "userDefined": true
      },
      {
        "text": " ",
        "userDefined": false
      },
      {
        "text": "lastname",
        "meta": "@sys.last-name",
        "alias": "last-name",
        "userDefined": true
      }
    ],
    "isTemplate": false,
    "count": 0,
    "lang": "en",
    "updated": 0
  },
  {
    "id": "98ea0990-afd6-4788-9347-9f079881f19f",
    "data": [
      {
        "text": "my full name is ",
        "userDefined": false
      },
      {
        "text": "givenname",
        "meta": "@sys.given-name",
        "alias": "given-name",
        "userDefined": true
      },
      {
        "text": " ",
        "userDefined": false
      },
      {
        "text": "lastname",
        "meta": "@sys.last-name",
        "alias": "last-name",
        "userDefined": true
      }
    ],
    "isTemplate": false,
    "count": 0,
    "lang": "en",
    "updated": 0
  },
  {
    "id": "5a167132-dc09-49ef-ba5a-9910b30436fb",
    "data": [
      {
        "text": "name",
        "meta": "@sys.given-name",
        "alias": "given-name",
        "userDefined": true
      }
    ],
    "isTemplate": false,
    "count": 0,
    "lang": "en",
    "updated": 0
  },
  {
    "id": "188af22f-4042-4097-8135-c533e6b439a5",
    "data": [
      {
        "text": "my name is ",
        "userDefined": false
      },
      {
        "text": "name",
        "meta": "@sys.given-name",
        "alias": "given-name",
        "userDefined": true
      }
    ],
    "isTemplate": false,
    "count": 0,
    "lang": "en",
    "updated": 0
  }
]